{
  "$id": "http://example.com/example.json",
  "type": "object",
  "properties": {
    "posts": {
      "$id": "/properties/posts",
      "type": "array",
      "items": {
        "$id": "/properties/posts/items",
        "type": "object",
        "properties": {
          "id": {
            "$id": "/properties/posts/items/properties/id",
            "type": "integer",
            "title": "The Id Schema ",
            "default": 0,
            "examples": [
              1740574
            ]
          },
          "title": {
            "$id": "/properties/posts/items/properties/title",
            "type": "string",
            "title": "The Title Schema ",
            "default": "",
            "examples": [
              "\"Такой шанс бывает раз в жизни\": Джаксыбеков рассказал, как изменилась его судьба"
            ]
          },
          "url": {
            "$id": "/properties/posts/items/properties/url",
            "type": "string",
            "title": "The Url Schema ",
            "default": "",
            "examples": [
              "https://www.nur.stage.systools.pro/1740574-takoj-sans-byvaet-raz-v-zizni-dzaksybekov-rasskazal-kak-izmenilas-ego-sudba.html"
            ]
          },
          "img": {
            "$id": "/properties/posts/items/properties/img",
            "type": "string",
            "title": "The Img Schema ",
            "default": "",
            "examples": [
              "https://fb.onthe.io/pogudx3ea250tak9mg.a1524b79.jpg?imwidth=500"
            ]
          },
          "imgSmall": {
            "$id": "/properties/posts/items/properties/imgSmall",
            "type": "string",
            "title": "The Imgsmall Schema ",
            "default": "",
            "examples": [
              "https://fb.onthe.io/pogudx3ea250tak9mg.a1524b79.jpg?imwidth=200"
            ]
          },
          "postType": {
            "$id": "/properties/posts/items/properties/postType",
            "type": "integer",
            "title": "The Posttype Schema ",
            "default": 0,
            "examples": [
              1
            ]
          },
          "views": {
            "$id": "/properties/posts/items/properties/views",
            "type": "integer",
            "title": "The Views Schema ",
            "default": 0,
            "examples": [
              478
            ]
          },
          "isTrending": {
            "$id": "/properties/posts/items/properties/isTrending",
            "type": "boolean",
            "title": "The Istrending Schema ",
            "default": false,
            "examples": [
              false
            ]
          },
          "reaction": {
            "$id": "/properties/posts/items/properties/reaction",
            "type": "integer",
            "title": "The Reaction Schema ",
            "default": 0,
            "examples": [
              -1
            ]
          },
          "author": {
            "$id": "/properties/posts/items/properties/author",
            "type": "string",
            "title": "The Author Schema ",
            "default": "",
            "examples": [
              "Анастасия Ходжер"
            ]
          },
          "modifyDate": {
            "$id": "/properties/posts/items/properties/modifyDate",
            "type": "string",
            "title": "The Modifydate Schema ",
            "default": "",
            "examples": [
              "2018-07-04T15:51:31+06:00"
            ]
          },
          "disableReactions": {
            "$id": "/properties/posts/items/properties/disableReactions",
            "type": "boolean",
            "title": "The Disablereactions Schema ",
            "default": false,
            "examples": [
              false
            ]
          },
          "commentsCount": {
            "$id": "/properties/posts/items/properties/commentsCount",
            "type": "integer",
            "title": "The Commentscount Schema ",
            "default": 0,
            "examples": [
              0
            ]
          },
          "publishDate": {
            "$id": "/properties/posts/items/properties/publishDate",
            "type": "string",
            "title": "The Publishdate Schema ",
            "default": "",
            "examples": [
              "2018-07-04T15:51:31+06:00"
            ]
          },
          "galleryContent": {
            "$id": "/properties/posts/items/properties/galleryContent",
            "type": "array"
          },
          "videoContent": {
            "$id": "/properties/posts/items/properties/videoContent",
            "type": "array"
          },
          "content": {
            "$id": "/properties/posts/items/properties/content",
            "type": "array",
            "items": {
              "$id": "/properties/posts/items/properties/content/items",
              "type": "object",
              "properties": {
                "content": {
                  "$id": "/properties/posts/items/properties/content/items/properties/content",
                  "type": ["string", "null"],
                  "title": "The Content Schema ",
                  "default": "",
                  "examples": [
                    "Глава администрации президента Адильбек Джаксыбеков рассказал о предпринимательском прошлом, о начале карьеры госслужащего и о том, как строилась Астана.  Интервью чиновника опубликовано в газете &quot;<a href=\"https://www.kazpravda.kz/articles/view/astana--simvol-nezavisimosti-kazahstana\" target=\"_blank\">Казахстанская правда</a>&quot;."
                  ]
                },
                "tagName": {
                  "$id": "/properties/posts/items/properties/content/items/properties/tagName",
                  "type": "string",
                  "title": "The Tagname Schema ",
                  "default": "",
                  "examples": [
                    "strong"
                  ]
                },
                "attributes": {
                  "$id": "/properties/posts/items/properties/content/items/properties/attributes",
                  "type": "object"
                },
                "children": {
                  "$id": "/properties/posts/items/properties/content/items/properties/children",
                  "type": "array"
                }
              },
              "required": [
                "content",
                "tagName",
                "attributes",
                "children"
              ]
            }
          },
          "related": {
            "$id": "/properties/posts/items/properties/related",
            "type": "object",
            "properties": {
              "posts": {
                "$id": "/properties/posts/items/properties/related/properties/posts",
                "type": "array",
                "items": {
                  "$id": "/properties/posts/items/properties/related/properties/posts/items",
                  "type": "object",
                  "properties": {
                    "postId": {
                      "$id": "/properties/posts/items/properties/related/properties/posts/items/properties/postId",
                      "type": "integer",
                      "title": "The Postid Schema ",
                      "default": 0,
                      "examples": [
                        1740249
                      ]
                    },
                    "postTitle": {
                      "$id": "/properties/posts/items/properties/related/properties/posts/items/properties/postTitle",
                      "type": "string",
                      "title": "The Posttitle Schema ",
                      "default": "",
                      "examples": [
                        "Эксперты: Доллар резко подорожает после ЧМ-2018"
                      ]
                    },
                    "img": {
                      "$id": "/properties/posts/items/properties/related/properties/posts/items/properties/img",
                      "type": "string",
                      "title": "The Img Schema ",
                      "default": "",
                      "examples": [
                        "https://static-nur.akamaized.net/pogudx3o050l6tphpg.b26cd832.jpg?imwidth=500"
                      ]
                    },
                    "views": {
                      "$id": "/properties/posts/items/properties/related/properties/posts/items/properties/views",
                      "type": "integer",
                      "title": "The Views Schema ",
                      "default": 0,
                      "examples": [
                        7188
                      ]
                    },
                    "date": {
                      "$id": "/properties/posts/items/properties/related/properties/posts/items/properties/date",
                      "type": "string",
                      "title": "The Date Schema ",
                      "default": "",
                      "examples": [
                        "2018-07-03T06:48:00+06:00"
                      ]
                    },
                    "fromTrending": {
                      "$id": "/properties/posts/items/properties/related/properties/posts/items/properties/fromTrending",
                      "type": "boolean",
                      "title": "The Fromtrending Schema ",
                      "default": false,
                      "examples": [
                        false
                      ]
                    }
                  },
                  "required": [
                    "postId",
                    "postTitle",
                    "img",
                    "views",
                    "date",
                    "fromTrending"
                  ]
                }
              },
              "checkedLatest": {
                "$id": "/properties/posts/items/properties/related/properties/checkedLatest",
                "type": "boolean",
                "title": "The Checkedlatest Schema ",
                "default": false,
                "examples": [
                  false
                ]
              }
            },
            "required": [
              "posts",
              "checkedLatest"
            ]
          },
          "reactions": {
            "$id": "/properties/posts/items/properties/reactions",
            "type": "array",
            "items": {
              "$id": "/properties/posts/items/properties/reactions/items",
              "type": "object",
              "properties": {
                "value": {
                  "$id": "/properties/posts/items/properties/reactions/items/properties/value",
                  "type": "integer",
                  "title": "The Value Schema ",
                  "default": 0,
                  "examples": [
                    3
                  ]
                },
                "label": {
                  "$id": "/properties/posts/items/properties/reactions/items/properties/label",
                  "type": "string",
                  "title": "The Label Schema ",
                  "default": "",
                  "examples": [
                    "Ұят"
                  ]
                },
                "key": {
                  "$id": "/properties/posts/items/properties/reactions/items/properties/key",
                  "type": "string",
                  "title": "The Key Schema ",
                  "default": "",
                  "examples": [
                    "7"
                  ]
                }
              },
              "required": [
                "value",
                "label",
                "key"
              ]
            }
          }
        },
        "required": [
          "id",
          "title",
          "url",
          "img",
          "imgSmall",
          "postType",
          "views",
          "isTrending",
          "reaction",
          "author",
          "modifyDate",
          "disableReactions",
          "commentsCount",
          "publishDate",
          "galleryContent",
          "videoContent",
          "content",
          "related",
          "reactions"
        ]
      }
    },
    "pagination": {
      "$id": "/properties/pagination",
      "type": "object",
      "properties": {
        "totalCount": {
          "$id": "/properties/pagination/properties/totalCount",
          "type": "integer",
          "title": "The Totalcount Schema ",
          "default": 0,
          "examples": [
            200
          ]
        },
        "pageCount": {
          "$id": "/properties/pagination/properties/pageCount",
          "type": "integer",
          "title": "The Pagecount Schema ",
          "default": 0,
          "examples": [
            14
          ]
        },
        "defaultPageSize": {
          "$id": "/properties/pagination/properties/defaultPageSize",
          "type": "integer",
          "title": "The Defaultpagesize Schema ",
          "default": 0,
          "examples": [
            10
          ]
        },
        "pageSizeLimit": {
          "$id": "/properties/pagination/properties/pageSizeLimit",
          "type": "array",
          "items": {
            "$id": "/properties/pagination/properties/pageSizeLimit/items",
            "type": "integer",
            "title": "The 0th Schema ",
            "default": 0,
            "examples": [
              1,
              50
            ]
          }
        }
      },
      "required": [
        "totalCount",
        "pageCount",
        "defaultPageSize",
        "pageSizeLimit"
      ]
    }
  },
  "required": [
    "posts",
    "pagination"
  ]
}