{
  "$schema": "http://json-schema.org/draft-04/schema#",
  "type": "object",
  "properties": {
    "str": {
      "type": "integer",
      "minLength": 1,
      "maxLength": 4
    }
  },
  "required": [
    "str"
  ]
}